<svg xmlns:rdf="http://www.w3.org/1999/02/22-rdf-syntax-ns#" xmlns="http://www.w3.org/2000/svg" height="512" width="512" version="1.1" xmlns:cc="http://creativecommons.org/ns#" xmlns:dc="http://purl.org/dc/elements/1.1/" viewBox="0 0 512.00001 512.00001">
	<g transform="translate(0 -540.36)">
		<path d="m128.25 1016.1-36.25-36.23 91.75-91.76 91.75-91.75-91.75-91.75-91.753-91.75 36.253-36.25 36.26-36.24 127.99 127.99 128 128-128 128-128 128.04-36.25-36.3z"/>
	</g>
</svg>
