<svg xmlns:rdf="http://www.w3.org/1999/02/22-rdf-syntax-ns#" xmlns="http://www.w3.org/2000/svg" height="512" width="512" version="1.1" xmlns:cc="http://creativecommons.org/ns#" xmlns:dc="http://purl.org/dc/elements/1.1/" viewBox="0 0 511.99999 511.99999">
	<g transform="translate(0 -540.36)">
		<path d="m292.5 1049.7c-4.4389-2.3096-101.26-99.166-103.82-103.86l-2.1828-4-0.27446-91.5-0.27445-91.5-91.898-92c-84.327-84.4-91.993-92.35-93.076-96.47-3.0696-11.68 5.0121-26.44 15.716-28.7 4.9791-1.0541 473.64-1.0541 478.62 0 10.704 2.2661 18.786 17.026 15.716 28.704-1.083 4.12-8.7468 12.064-93.085 96.49l-91.905 92-0.26796 138c-0.24151 124.38-0.42688 138.35-1.878 141.5-2.1287 4.6275-6.4657 8.8622-11.39 11.121-5.0487 2.316-15.761 2.4434-20 0.2379z"/>
	</g>
</svg>
