<?xml version="1.0" encoding="UTF-8" standalone="no"?>
<!-- Created with Inkscape (http://www.inkscape.org/) -->

<svg
   xmlns:dc="http://purl.org/dc/elements/1.1/"
   xmlns:cc="http://creativecommons.org/ns#"
   xmlns:rdf="http://www.w3.org/1999/02/22-rdf-syntax-ns#"
   xmlns:svg="http://www.w3.org/2000/svg"
   xmlns="http://www.w3.org/2000/svg"
   xmlns:sodipodi="http://sodipodi.sourceforge.net/DTD/sodipodi-0.dtd"
   xmlns:inkscape="http://www.inkscape.org/namespaces/inkscape"
   width="512"
   height="512"
   viewBox="0 0 512.00001 512.00001"
   id="svg2"
   version="1.1"
   inkscape:version="0.91 r13725"
   sodipodi:docname="list.svg">
  <defs
     id="defs4" />
  <sodipodi:namedview
     id="base"
     pagecolor="#ffffff"
     bordercolor="#666666"
     borderopacity="1.0"
     inkscape:pageopacity="0.0"
     inkscape:pageshadow="2"
     inkscape:zoom="0.35"
     inkscape:cx="-126.42857"
     inkscape:cy="520"
     inkscape:document-units="px"
     inkscape:current-layer="layer1"
     showgrid="false"
     units="px"
     inkscape:window-width="1858"
     inkscape:window-height="1057"
     inkscape:window-x="54"
     inkscape:window-y="-8"
     inkscape:window-maximized="1" />
  <metadata
     id="metadata7">
    <rdf:RDF>
      <cc:Work
         rdf:about="">
        <dc:format>image/svg+xml</dc:format>
        <dc:type
           rdf:resource="http://purl.org/dc/dcmitype/StillImage" />
        <dc:title></dc:title>
      </cc:Work>
    </rdf:RDF>
  </metadata>
  <g
     inkscape:label="Layer 1"
     inkscape:groupmode="layer"
     id="layer1"
     transform="translate(0,-540.36216)">
    <path
       style="fill:#000000"
       d="m 0,988.36215 0,-48 64,0 64,0 0,48 0,48.00005 -64,0 -64,0 0,-48.00005 z m 160,0 0,-48 176,0 176,0 0,48 0,48.00005 -176,0 -176,0 0,-48.00005 z m -160,-128 0,-48 64,0 64,0 0,48 0,48 -64,0 -64,0 0,-48 z m 160,0 0,-48 176,0 176,0 0,48 0,48 -176,0 -176,0 0,-48 z m -160,-128 0,-48 64,0 64,0 0,48 0,48 -64,0 -64,0 0,-48 z m 160,0 0,-48 176,0 176,0 0,48 0,48 -176,0 -176,0 0,-48 z m -160,-128 0,-48 64,0 64,0 0,48 0,48 -64,0 -64,0 0,-48 z m 160,0 0,-48 176,0 176,0 0,48 0,48 -176,0 -176,0 0,-48 z"
       id="path3371"
       inkscape:connector-curvature="0" />
  </g>
</svg>
